{
  "subtreeRecordMap": {
    "block": {
      "5b593126-d3eb-401d-b62c-83cbe362d2d5": {
        "role": "reader",
        "value": {
          "id": "5b593126-d3eb-401d-b62c-83cbe362d2d5",
          "version": 31,
          "type": "collection_view_page",
          "content": [
            "b7db9e57-beb3-4d3d-8144-2bb1528ab3ee"
          ],
          "view_ids": [
            "a44397b3-6755-45f3-89a6-f28282c402ae",
            "4b76b725-284f-4982-ab9e-3ac23dd4064b",
            "109323a0-e0dd-441f-bc8d-0b4357902d41",
            "1f36c7ed-1476-4c70-93b0-71db8ef04aad",
            "c92c1e9d-b187-4ebb-aaaa-e0ff73ae5ab6",
            "1714caec-f202-4964-b7c4-114c3b18c646",
            "7e0cc42c-817b-4868-9e7c-86d8df8e68ae"
          ],
          "collection_id": "0983b4a2-1683-42cd-ae71-71d405414204",
          "permissions": [
            {
              "role": "reader",
              "type": "public_permission"
            },
            {
              "role": "editor",
              "type": "space_permission"
            }
          ],
          "created_by": "33e41f0b-9c5f-4241-9f62-3e90559ab8f2",
          "created_time": 1506991562402,
          "last_edited_by": "e894aec7-c5cc-4aa2-8c20-fb602fa7777a",
          "last_edited_time": 1520969097511,
          "parent_id": "1f88cc90-92fd-4ce4-bfcd-25daec2ffbbe",
          "parent_table": "space",
          "alive": true
        }
      },
      "b7db9e57-beb3-4d3d-8144-2bb1528ab3ee": {
        "role": "reader",
        "value": {
          "id": "b7db9e57-beb3-4d3d-8144-2bb1528ab3ee",
          "version": 31,
          "type": "text",
          "created_by": "4b723c12-e06d-4354-9951-aef27cabf6f1",
          "created_time": 1511220755400,
          "last_edited_by": "4b723c12-e06d-4354-9951-aef27cabf6f1",
          "last_edited_time": 1511220755400,
          "parent_id": "5b593126-d3eb-401d-b62c-83cbe362d2d5",
          "parent_table": "block",
          "alive": true
        }
      },
      "ccce2098-44f0-40b1-ace8-74101510530d": {
        "role": "reader",
        "value": {
          "id": "ccce2098-44f0-40b1-ace8-74101510530d",
          "version": 29,
          "type": "page",
          "properties": {
            "\"0Md": [
              [
                "Android,QA"
              ]
            ],
            "KQvh": [
              [
                "Engineering"
              ]
            ],
            "title": [
              [
                "Desktop push notifications"
              ]
            ],
            "prop_2": [
              [
                "‣",
                [
                  [
                    "u",
                    "33e41f0b-9c5f-4241-9f62-3e90559ab8f2"
                  ]
                ]
              ]
            ]
          },
          "content": [
            "32e841ba-bec9-445f-99c7-e66d5d85d106",
            "c7a90666-99a5-47f6-8796-c9743308ab75",
            "b8cee12a-3e63-4e73-afe3-8348aa13d694",
            "8ecb6f41-ef00-4d52-9a6d-1be450c80475"
          ],
          "created_by": "e0d8983d-9b38-4f83-889d-7d4fc44d4f62",
          "created_time": 1513986229407,
          "last_edited_by": "33e41f0b-9c5f-4241-9f62-3e90559ab8f2",
          "last_edited_time": 1516928529230,
          "parent_id": "0983b4a2-1683-42cd-ae71-71d405414204",
          "parent_table": "collection",
          "alive": true
        }
      },
      "32e841ba-bec9-445f-99c7-e66d5d85d106": {
        "role": "reader",
        "value": {
          "id": "32e841ba-bec9-445f-99c7-e66d5d85d106",
          "version": 29,
          "type": "sub_header",
          "properties": {
            "title": [
              [
                "Push notifications should be triggered on following occasions:"
              ]
            ]
          },
          "created_by": "33e41f0b-9c5f-4241-9f62-3e90559ab8f2",
          "created_time": 1511294607298,
          "last_edited_by": "33e41f0b-9c5f-4241-9f62-3e90559ab8f2",
          "last_edited_time": 1511295632244,
          "parent_id": "ccce2098-44f0-40b1-ace8-74101510530d",
          "parent_table": "block",
          "alive": true,
          "copied_from": "d4f55c70-55bc-482f-91bd-bc751455d219"
        }
      },
      "c7a90666-99a5-47f6-8796-c9743308ab75": {
        "role": "reader",
        "value": {
          "id": "c7a90666-99a5-47f6-8796-c9743308ab75",
          "version": 29,
          "type": "to_do",
          "properties": {
            "title": [
              [
                "When someone mentions someone"
              ]
            ]
          },
          "created_by": "33e41f0b-9c5f-4241-9f62-3e90559ab8f2",
          "created_time": 1511294618883,
          "last_edited_by": "33e41f0b-9c5f-4241-9f62-3e90559ab8f2",
          "last_edited_time": 1511294648699,
          "parent_id": "ccce2098-44f0-40b1-ace8-74101510530d",
          "parent_table": "block",
          "alive": true,
          "copied_from": "fafbbfb7-89c0-4412-aa1a-7010dc38da86"
        }
      },
      "b8cee12a-3e63-4e73-afe3-8348aa13d694": {
        "role": "reader",
        "value": {
          "id": "b8cee12a-3e63-4e73-afe3-8348aa13d694",
          "version": 29,
          "type": "to_do",
          "properties": {
            "title": [
              [
                "When the content of the page is changed"
              ]
            ]
          },
          "created_by": "33e41f0b-9c5f-4241-9f62-3e90559ab8f2",
          "created_time": 1511294639253,
          "last_edited_by": "33e41f0b-9c5f-4241-9f62-3e90559ab8f2",
          "last_edited_time": 1511294648699,
          "parent_id": "ccce2098-44f0-40b1-ace8-74101510530d",
          "parent_table": "block",
          "alive": true,
          "copied_from": "5f56185d-c73c-47e2-a9f0-6f9b74ec3d0f"
        }
      },
      "8ecb6f41-ef00-4d52-9a6d-1be450c80475": {
        "role": "reader",
        "value": {
          "id": "8ecb6f41-ef00-4d52-9a6d-1be450c80475",
          "version": 29,
          "type": "to_do",
          "properties": {
            "title": [
              [
                "When an update of the app is available"
              ]
            ]
          },
          "created_by": "33e41f0b-9c5f-4241-9f62-3e90559ab8f2",
          "created_time": 1511294640806,
          "last_edited_by": "33e41f0b-9c5f-4241-9f62-3e90559ab8f2",
          "last_edited_time": 1511294648699,
          "parent_id": "ccce2098-44f0-40b1-ace8-74101510530d",
          "parent_table": "block",
          "alive": true,
          "copied_from": "3d0fb088-1252-4943-8f22-16ea0b5fc0cd"
        }
      },
      "28a9bb99-411f-461d-860d-ed8c1ae083fc": {
        "role": "reader",
        "value": {
          "id": "28a9bb99-411f-461d-860d-ed8c1ae083fc",
          "version": 29,
          "type": "page",
          "properties": {
            "\"0Md": [
              [
                "iOS,QA"
              ]
            ],
            "\"ybu": [
              [
                "January 8 2018, 15:50 -0800"
              ]
            ],
            "KQvh": [
              [
                "Engineering"
              ]
            ],
            "title": [
              [
                "Offline mode polish"
              ]
            ],
            "prop_1": [
              [
                "In Progress"
              ]
            ],
            "prop_2": [
              [
                "‣",
                [
                  [
                    "u",
                    "e0d8983d-9b38-4f83-889d-7d4fc44d4f62"
                  ]
                ]
              ]
            ]
          },
          "created_by": "33e41f0b-9c5f-4241-9f62-3e90559ab8f2",
          "created_time": 1513986615903,
          "last_edited_by": "33e41f0b-9c5f-4241-9f62-3e90559ab8f2",
          "last_edited_time": 1516928535464,
          "parent_id": "0983b4a2-1683-42cd-ae71-71d405414204",
          "parent_table": "collection",
          "alive": true
        }
      },
      "627a54a0-7fac-4a26-a27b-bd2a532da6bb": {
        "role": "reader",
        "value": {
          "id": "627a54a0-7fac-4a26-a27b-bd2a532da6bb",
          "version": 29,
          "type": "page",
          "properties": {
            "\"0Md": [
              [
                "🔥  Important"
              ]
            ],
            "KQvh": [
              [
                "Design"
              ]
            ],
            "title": [
              [
                "Button blue hover color"
              ]
            ],
            "prop_2": [
              [
                "‣",
                [
                  [
                    "u",
                    "d70e781e-50f1-4b3f-9147-80a73ffcb175"
                  ]
                ]
              ],
              [
                ","
              ],
              [
                "‣",
                [
                  [
                    "u",
                    "33e41f0b-9c5f-4241-9f62-3e90559ab8f2"
                  ]
                ]
              ]
            ]
          },
          "content": [
            "613eba32-fb94-4b1b-815e-90cb96106994",
            "f2ea7839-2099-4dfe-a234-919f246eee60"
          ],
          "created_by": "bd3552d4-2e14-448e-b60d-8d0fe921a4ae",
          "created_time": 1513986404433,
          "last_edited_by": "33e41f0b-9c5f-4241-9f62-3e90559ab8f2",
          "last_edited_time": 1516927486921,
          "parent_id": "0983b4a2-1683-42cd-ae71-71d405414204",
          "parent_table": "collection",
          "alive": true
        }
      },
      "613eba32-fb94-4b1b-815e-90cb96106994": {
        "role": "reader",
        "value": {
          "id": "613eba32-fb94-4b1b-815e-90cb96106994",
          "version": 29,
          "type": "sub_header",
          "properties": {
            "title": [
              [
                "Play around with different blue hover colors"
              ]
            ]
          },
          "created_by": "33e41f0b-9c5f-4241-9f62-3e90559ab8f2",
          "created_time": 1511294662895,
          "last_edited_by": "bd3552d4-2e14-448e-b60d-8d0fe921a4ae",
          "last_edited_time": 1513986426936,
          "parent_id": "627a54a0-7fac-4a26-a27b-bd2a532da6bb",
          "parent_table": "block",
          "alive": true
        }
      },
      "f2ea7839-2099-4dfe-a234-919f246eee60": {
        "role": "reader",
        "value": {
          "id": "f2ea7839-2099-4dfe-a234-919f246eee60",
          "version": 29,
          "type": "text",
          "properties": {
            "title": [
              [
                "RGB: "
              ]
            ]
          },
          "content": [
            "06bfeaac-3329-4e9b-b257-1eb34190617d",
            "53d6fad4-843f-40e9-a40b-cc7fdfae3a7a",
            "0d8ca3fd-35c5-4d1f-a301-da9b373b9e9d",
            "6a0281c9-bc5a-4385-a93a-27826f6ccc75"
          ],
          "created_by": "33e41f0b-9c5f-4241-9f62-3e90559ab8f2",
          "created_time": 1511294685662,
          "last_edited_by": "bd3552d4-2e14-448e-b60d-8d0fe921a4ae",
          "last_edited_time": 1513986426936,
          "parent_id": "627a54a0-7fac-4a26-a27b-bd2a532da6bb",
          "parent_table": "block",
          "alive": true
        }
      },
      "06bfeaac-3329-4e9b-b257-1eb34190617d": {
        "role": "reader",
        "value": {
          "id": "06bfeaac-3329-4e9b-b257-1eb34190617d",
          "version": 29,
          "type": "bulleted_list",
          "properties": {
            "title": [
              [
                "0-0-255"
              ]
            ]
          },
          "created_by": "33e41f0b-9c5f-4241-9f62-3e90559ab8f2",
          "created_time": 1511294710470,
          "last_edited_by": "bd3552d4-2e14-448e-b60d-8d0fe921a4ae",
          "last_edited_time": 1513986426936,
          "parent_id": "f2ea7839-2099-4dfe-a234-919f246eee60",
          "parent_table": "block",
          "alive": true
        }
      },
      "53d6fad4-843f-40e9-a40b-cc7fdfae3a7a": {
        "role": "reader",
        "value": {
          "id": "53d6fad4-843f-40e9-a40b-cc7fdfae3a7a",
          "version": 29,
          "type": "bulleted_list",
          "properties": {
            "title": [
              [
                "30-144-255"
              ]
            ]
          },
          "created_by": "33e41f0b-9c5f-4241-9f62-3e90559ab8f2",
          "created_time": 1511294713839,
          "last_edited_by": "bd3552d4-2e14-448e-b60d-8d0fe921a4ae",
          "last_edited_time": 1513986426936,
          "parent_id": "f2ea7839-2099-4dfe-a234-919f246eee60",
          "parent_table": "block",
          "alive": true
        }
      },
      "0d8ca3fd-35c5-4d1f-a301-da9b373b9e9d": {
        "role": "reader",
        "value": {
          "id": "0d8ca3fd-35c5-4d1f-a301-da9b373b9e9d",
          "version": 29,
          "type": "bulleted_list",
          "properties": {
            "title": [
              [
                "0-191-255"
              ]
            ]
          },
          "created_by": "33e41f0b-9c5f-4241-9f62-3e90559ab8f2",
          "created_time": 1511294720215,
          "last_edited_by": "bd3552d4-2e14-448e-b60d-8d0fe921a4ae",
          "last_edited_time": 1513986426936,
          "parent_id": "f2ea7839-2099-4dfe-a234-919f246eee60",
          "parent_table": "block",
          "alive": true
        }
      },
      "6a0281c9-bc5a-4385-a93a-27826f6ccc75": {
        "role": "reader",
        "value": {
          "id": "6a0281c9-bc5a-4385-a93a-27826f6ccc75",
          "version": 29,
          "type": "bulleted_list",
          "properties": {
            "title": [
              [
                "135-206-250"
              ]
            ]
          },
          "created_by": "33e41f0b-9c5f-4241-9f62-3e90559ab8f2",
          "created_time": 1511294725359,
          "last_edited_by": "bd3552d4-2e14-448e-b60d-8d0fe921a4ae",
          "last_edited_time": 1513986426936,
          "parent_id": "f2ea7839-2099-4dfe-a234-919f246eee60",
          "parent_table": "block",
          "alive": true
        }
      },
      "043205f8-ff26-4a76-921b-e430bc312595": {
        "role": "reader",
        "value": {
          "id": "043205f8-ff26-4a76-921b-e430bc312595",
          "version": 29,
          "type": "page",
          "properties": {
            "\"0Md": [
              [
                "Polish"
              ]
            ],
            "KQvh": [
              [
                "Engineering"
              ]
            ],
            "title": [
              [
                "Rename archive to trash"
              ]
            ],
            "prop_1": [
              [
                "Completed"
              ]
            ],
            "prop_2": [
              [
                "‣",
                [
                  [
                    "u",
                    "bd3552d4-2e14-448e-b60d-8d0fe921a4ae"
                  ]
                ]
              ]
            ]
          },
          "created_by": "e0d8983d-9b38-4f83-889d-7d4fc44d4f62",
          "created_time": 1513986277815,
          "last_edited_by": "33e41f0b-9c5f-4241-9f62-3e90559ab8f2",
          "last_edited_time": 1516926777799,
          "parent_id": "0983b4a2-1683-42cd-ae71-71d405414204",
          "parent_table": "collection",
          "alive": true
        }
      },
      "69a1896b-d583-4cf0-96c1-3c2bfd2cf02b": {
        "role": "reader",
        "value": {
          "id": "69a1896b-d583-4cf0-96c1-3c2bfd2cf02b",
          "version": 29,
          "type": "page",
          "properties": {
            "\"0Md": [
              [
                "Bug,🔥  Important"
              ]
            ],
            "\"ybu": [
              [
                "January 3 2018, 15:47 -0800"
              ]
            ],
            "KQvh": [
              [
                "Engineering"
              ]
            ],
            "title": [
              [
                "Fix keyboard shortcuts"
              ]
            ],
            "prop_1": [
              [
                "Next Up"
              ]
            ],
            "prop_2": [
              [
                "‣",
                [
                  [
                    "u",
                    "33e41f0b-9c5f-4241-9f62-3e90559ab8f2"
                  ]
                ]
              ]
            ]
          },
          "content": [
            "51aa63e6-0b0b-4c99-823a-4f9d9627e268",
            "63debafe-7ef2-4836-bcdb-37aa662f0cca",
            "606d44f1-56d9-4710-b84b-6d215668fa92",
            "ad83de2a-36f3-4d96-a12f-f17727962eea",
            "d47c0d15-04a0-4a80-9ad1-2025214655e5",
            "6d2ef1b0-b13a-428f-8663-cc281714ee98"
          ],
          "format": {
            "page_icon": "👨‍💻"
          },
          "created_by": "bd3552d4-2e14-448e-b60d-8d0fe921a4ae",
          "created_time": 1513986437345,
          "last_edited_by": "33e41f0b-9c5f-4241-9f62-3e90559ab8f2",
          "last_edited_time": 1516926612540,
          "parent_id": "0983b4a2-1683-42cd-ae71-71d405414204",
          "parent_table": "collection",
          "alive": true
        }
      },
      "51aa63e6-0b0b-4c99-823a-4f9d9627e268": {
        "role": "reader",
        "value": {
          "id": "51aa63e6-0b0b-4c99-823a-4f9d9627e268",
          "version": 29,
          "type": "sub_header",
          "properties": {
            "title": [
              [
                "Fix buggy keyboard shortcuts we've received tickets on:"
              ]
            ]
          },
          "created_by": "33e41f0b-9c5f-4241-9f62-3e90559ab8f2",
          "created_time": 1511293805243,
          "last_edited_by": "bd3552d4-2e14-448e-b60d-8d0fe921a4ae",
          "last_edited_time": 1513986475948,
          "parent_id": "69a1896b-d583-4cf0-96c1-3c2bfd2cf02b",
          "parent_table": "block",
          "alive": true
        }
      },
      "63debafe-7ef2-4836-bcdb-37aa662f0cca": {
        "role": "reader",
        "value": {
          "id": "63debafe-7ef2-4836-bcdb-37aa662f0cca",
          "version": 29,
          "type": "bulleted_list",
          "properties": {
            "title": [
              [
                "Bold, underline text"
              ]
            ],
            "checked": [
              [
                "Yes"
              ]
            ]
          },
          "created_by": "33e41f0b-9c5f-4241-9f62-3e90559ab8f2",
          "created_time": 1511293897586,
          "last_edited_by": "bd3552d4-2e14-448e-b60d-8d0fe921a4ae",
          "last_edited_time": 1513986475948,
          "parent_id": "69a1896b-d583-4cf0-96c1-3c2bfd2cf02b",
          "parent_table": "block",
          "alive": true
        }
      },
      "606d44f1-56d9-4710-b84b-6d215668fa92": {
        "role": "reader",
        "value": {
          "id": "606d44f1-56d9-4710-b84b-6d215668fa92",
          "version": 29,
          "type": "bulleted_list",
          "properties": {
            "title": [
              [
                "Highlight text"
              ]
            ],
            "checked": [
              [
                "Yes"
              ]
            ]
          },
          "created_by": "33e41f0b-9c5f-4241-9f62-3e90559ab8f2",
          "created_time": 1511293905387,
          "last_edited_by": "bd3552d4-2e14-448e-b60d-8d0fe921a4ae",
          "last_edited_time": 1513986475948,
          "parent_id": "69a1896b-d583-4cf0-96c1-3c2bfd2cf02b",
          "parent_table": "block",
          "alive": true
        }
      },
      "ad83de2a-36f3-4d96-a12f-f17727962eea": {
        "role": "reader",
        "value": {
          "id": "ad83de2a-36f3-4d96-a12f-f17727962eea",
          "version": 29,
          "type": "bulleted_list",
          "properties": {
            "title": [
              [
                "Page creation"
              ]
            ]
          },
          "created_by": "33e41f0b-9c5f-4241-9f62-3e90559ab8f2",
          "created_time": 1511293842624,
          "last_edited_by": "bd3552d4-2e14-448e-b60d-8d0fe921a4ae",
          "last_edited_time": 1513986475948,
          "parent_id": "69a1896b-d583-4cf0-96c1-3c2bfd2cf02b",
          "parent_table": "block",
          "alive": true
        }
      },
      "d47c0d15-04a0-4a80-9ad1-2025214655e5": {
        "role": "reader",
        "value": {
          "id": "d47c0d15-04a0-4a80-9ad1-2025214655e5",
          "version": 29,
          "type": "bulleted_list",
          "properties": {
            "title": [
              [
                "Adding images"
              ]
            ]
          },
          "created_by": "33e41f0b-9c5f-4241-9f62-3e90559ab8f2",
          "created_time": 1511293873693,
          "last_edited_by": "bd3552d4-2e14-448e-b60d-8d0fe921a4ae",
          "last_edited_time": 1513986475948,
          "parent_id": "69a1896b-d583-4cf0-96c1-3c2bfd2cf02b",
          "parent_table": "block",
          "alive": true
        }
      },
      "6d2ef1b0-b13a-428f-8663-cc281714ee98": {
        "role": "reader",
        "value": {
          "id": "6d2ef1b0-b13a-428f-8663-cc281714ee98",
          "version": 29,
          "type": "bulleted_list",
          "properties": {
            "title": [
              [
                "Adding bullet lists"
              ]
            ]
          },
          "created_by": "33e41f0b-9c5f-4241-9f62-3e90559ab8f2",
          "created_time": 1511293875164,
          "last_edited_by": "bd3552d4-2e14-448e-b60d-8d0fe921a4ae",
          "last_edited_time": 1513986475948,
          "parent_id": "69a1896b-d583-4cf0-96c1-3c2bfd2cf02b",
          "parent_table": "block",
          "alive": true
        }
      },
      "f8b076d9-6774-435a-8578-7a695f1320ff": {
        "role": "reader",
        "value": {
          "id": "f8b076d9-6774-435a-8578-7a695f1320ff",
          "version": 29,
          "type": "page",
          "properties": {
            "\"0Md": [
              [
                "Polish"
              ]
            ],
            "KQvh": [
              [
                "Design"
              ]
            ],
            "title": [
              [
                "Add avatars"
              ]
            ],
            "prop_1": [
              [
                "In Progress"
              ]
            ],
            "prop_2": [
              [
                "‣",
                [
                  [
                    "u",
                    "e0d8983d-9b38-4f83-889d-7d4fc44d4f62"
                  ]
                ]
              ]
            ]
          },
          "created_by": "adf1976a-dd9f-4277-9521-219f43715666",
          "created_time": 1513986557354,
          "last_edited_by": "33e41f0b-9c5f-4241-9f62-3e90559ab8f2",
          "last_edited_time": 1516926774638,
          "parent_id": "0983b4a2-1683-42cd-ae71-71d405414204",
          "parent_table": "collection",
          "alive": true
        }
      }
    },
    "collection_view": {
      "a44397b3-6755-45f3-89a6-f28282c402ae": {
        "role": "reader",
        "value": {
          "id": "a44397b3-6755-45f3-89a6-f28282c402ae",
          "version": 31,
          "type": "board",
          "name": "Board by Status",
          "query": {
            "group_by": "prop_1"
          },
          "format": {
            "board_groups": [
              {
                "type": "select",
                "hidden": false,
                "property": "prop_1"
              },
              {
                "type": "select",
                "value": "Next Up",
                "hidden": false,
                "property": "prop_1"
              },
              {
                "type": "select",
                "value": "In Progress",
                "hidden": false,
                "property": "prop_1"
              },
              {
                "type": "select",
                "value": "Completed",
                "hidden": false,
                "property": "prop_1"
              }
            ],
            "board_properties": [
              {
                "visible": true,
                "property": "\"0Md"
              },
              {
                "visible": true,
                "property": "prop_2"
              },
              {
                "visible": false,
                "property": "Hhyo"
              },
              {
                "visible": false,
                "property": "|n^C"
              },
              {
                "visible": false,
                "property": "prop_1"
              },
              {
                "visible": true,
                "property": "\"ybu"
              },
              {
                "visible": true,
                "property": "KQvh"
              }
            ]
          },
          "parent_id": "5b593126-d3eb-401d-b62c-83cbe362d2d5",
          "parent_table": "block",
          "alive": true,
          "page_sort": [
            "5f35355a-1258-4c3c-9ed8-ab8591a19e46",
            "6e461aa6-9cd2-4240-aefb-eeb3f1dc7ad2",
            "99bc793c-cadc-4831-9569-cb570331d8cc",
            "1d49d399-f78e-4972-99e7-83be52aaf0d5",
            "2abd0a3f-3afb-46c4-96d6-91d697078d8b",
            "1b0cfe54-d5b5-4760-a4dd-0e34c2ea50b9"
          ]
        }
      },
      "4b76b725-284f-4982-ab9e-3ac23dd4064b": {
        "role": "reader",
        "value": {
          "id": "4b76b725-284f-4982-ab9e-3ac23dd4064b",
          "version": 31,
          "type": "board",
          "name": "Board by Assignee",
          "query": {
            "group_by": "prop_2",
            "aggregate": [
              {
                "id": "count",
                "view_type": "board",
                "aggregation_type": "count"
              }
            ],
            "filter_operator": "and"
          },
          "format": {
            "board_groups": [
              {
                "type": "person",
                "hidden": false,
                "property": "prop_2"
              },
              {
                "type": "person",
                "value": "e0d8983d-9b38-4f83-889d-7d4fc44d4f62",
                "hidden": false,
                "property": "prop_2"
              },
              {
                "type": "person",
                "value": "33e41f0b-9c5f-4241-9f62-3e90559ab8f2",
                "hidden": false,
                "property": "prop_2"
              },
              {
                "type": "person",
                "value": "d70e781e-50f1-4b3f-9147-80a73ffcb175",
                "hidden": false,
                "property": "prop_2"
              },
              {
                "type": "person",
                "value": "adf1976a-dd9f-4277-9521-219f43715666",
                "hidden": false,
                "property": "prop_2"
              },
              {
                "type": "person",
                "value": "bd3552d4-2e14-448e-b60d-8d0fe921a4ae",
                "hidden": false,
                "property": "prop_2"
              }
            ],
            "board_properties": [
              {
                "visible": true,
                "property": "\"0Md"
              },
              {
                "visible": false,
                "property": "Hhyo"
              },
              {
                "visible": false,
                "property": "|n^C"
              },
              {
                "visible": true,
                "property": "prop_1"
              },
              {
                "visible": false,
                "property": "prop_2"
              },
              {
                "visible": true,
                "property": "\"ybu"
              },
              {
                "visible": false,
                "property": "KQvh"
              }
            ]
          },
          "parent_id": "5b593126-d3eb-401d-b62c-83cbe362d2d5",
          "parent_table": "block",
          "alive": true,
          "page_sort": [
            "5f35355a-1258-4c3c-9ed8-ab8591a19e46",
            "6e461aa6-9cd2-4240-aefb-eeb3f1dc7ad2",
            "2abd0a3f-3afb-46c4-96d6-91d697078d8b"
          ]
        }
      },
      "109323a0-e0dd-441f-bc8d-0b4357902d41": {
        "role": "reader",
        "value": {
          "id": "109323a0-e0dd-441f-bc8d-0b4357902d41",
          "version": 31,
          "type": "board",
          "name": "Board - Assigned to Me 👈",
          "query": {
            "filter": [
              {
                "id": "916886c5-542e-406d-b8a4-5f06697698d7",
                "type": "person",
                "property": "prop_2",
                "comparator": "enum_contains",
                "value_type": "me"
              }
            ],
            "group_by": "prop_1",
            "aggregate": [
              {
                "id": "count",
                "view_type": "board",
                "aggregation_type": "count"
              }
            ],
            "filter_operator": "and"
          },
          "format": {
            "board_groups": [
              {
                "type": "select",
                "hidden": false,
                "property": "prop_1"
              },
              {
                "type": "select",
                "value": "Next Up",
                "hidden": false,
                "property": "prop_1"
              },
              {
                "type": "select",
                "value": "In Progress",
                "hidden": false,
                "property": "prop_1"
              },
              {
                "type": "select",
                "value": "Completed",
                "hidden": false,
                "property": "prop_1"
              }
            ],
            "board_properties": [
              {
                "visible": true,
                "property": "\"0Md"
              },
              {
                "visible": false,
                "property": "Hhyo"
              },
              {
                "visible": true,
                "property": "|n^C"
              },
              {
                "visible": false,
                "property": "prop_1"
              },
              {
                "visible": true,
                "property": "prop_2"
              },
              {
                "visible": true,
                "property": "\"ybu"
              },
              {
                "visible": false,
                "property": "KQvh"
              }
            ]
          },
          "parent_id": "5b593126-d3eb-401d-b62c-83cbe362d2d5",
          "parent_table": "block",
          "alive": true
        }
      },
      "1f36c7ed-1476-4c70-93b0-71db8ef04aad": {
        "role": "reader",
        "value": {
          "id": "1f36c7ed-1476-4c70-93b0-71db8ef04aad",
          "version": 26,
          "type": "board",
          "name": "Board - Engineering",
          "query": {
            "filter": [
              {
                "id": "76733daf-6604-4569-a8a3-31e90d6f06f4",
                "type": "select",
                "value": "Engineering",
                "property": "KQvh",
                "comparator": "enum_is"
              }
            ],
            "group_by": "prop_1",
            "aggregate": [
              {
                "id": "count",
                "view_type": "board",
                "aggregation_type": "count"
              }
            ],
            "filter_operator": "and"
          },
          "format": {
            "board_groups": [
              {
                "type": "select",
                "hidden": false,
                "property": "prop_1"
              },
              {
                "type": "select",
                "value": "Next Up",
                "hidden": false,
                "property": "prop_1"
              },
              {
                "type": "select",
                "value": "In Progress",
                "hidden": false,
                "property": "prop_1"
              },
              {
                "type": "select",
                "value": "Completed",
                "hidden": false,
                "property": "prop_1"
              }
            ],
            "board_properties": [
              {
                "visible": true,
                "property": "\"0Md"
              },
              {
                "visible": true,
                "property": "prop_2"
              },
              {
                "visible": false,
                "property": "Hhyo"
              },
              {
                "visible": false,
                "property": "|n^C"
              },
              {
                "visible": true,
                "property": "\"ybu"
              },
              {
                "visible": false,
                "property": "KQvh"
              },
              {
                "visible": false,
                "property": "prop_1"
              }
            ]
          },
          "parent_id": "5b593126-d3eb-401d-b62c-83cbe362d2d5",
          "parent_table": "block",
          "alive": true
        }
      },
      "c92c1e9d-b187-4ebb-aaaa-e0ff73ae5ab6": {
        "role": "reader",
        "value": {
          "id": "c92c1e9d-b187-4ebb-aaaa-e0ff73ae5ab6",
          "version": 26,
          "type": "board",
          "name": "Board - Design",
          "query": {
            "filter": [
              {
                "id": "89fb3ca5-5b48-49fa-9e8e-3878580dbeef",
                "type": "select",
                "value": "Design",
                "property": "KQvh",
                "comparator": "enum_is"
              }
            ],
            "group_by": "prop_1",
            "aggregate": [
              {
                "id": "count",
                "view_type": "board",
                "aggregation_type": "count"
              }
            ],
            "filter_operator": "and"
          },
          "format": {
            "board_groups": [
              {
                "type": "select",
                "hidden": false,
                "property": "prop_1"
              },
              {
                "type": "select",
                "value": "Next Up",
                "hidden": false,
                "property": "prop_1"
              },
              {
                "type": "select",
                "value": "In Progress",
                "hidden": false,
                "property": "prop_1"
              },
              {
                "type": "select",
                "value": "Completed",
                "hidden": false,
                "property": "prop_1"
              }
            ],
            "board_properties": [
              {
                "visible": true,
                "property": "\"0Md"
              },
              {
                "visible": true,
                "property": "prop_2"
              },
              {
                "visible": false,
                "property": "Hhyo"
              },
              {
                "visible": false,
                "property": "|n^C"
              },
              {
                "visible": true,
                "property": "\"ybu"
              },
              {
                "visible": false,
                "property": "prop_1"
              },
              {
                "visible": false,
                "property": "KQvh"
              }
            ]
          },
          "parent_id": "5b593126-d3eb-401d-b62c-83cbe362d2d5",
          "parent_table": "block",
          "alive": true
        }
      },
      "1714caec-f202-4964-b7c4-114c3b18c646": {
        "role": "reader",
        "value": {
          "id": "1714caec-f202-4964-b7c4-114c3b18c646",
          "version": 31,
          "type": "table",
          "name": "Table - Show All",
          "query": {
            "aggregate": [
              {
                "id": "df3e7366-2a25-4210-a83a-267868dca2f4",
                "type": "title",
                "property": "title",
                "view_type": "table",
                "aggregation_type": "count"
              }
            ],
            "filter_operator": "and"
          },
          "format": {
            "table_properties": [
              {
                "width": 280,
                "visible": true,
                "property": "title"
              },
              {
                "width": 152,
                "visible": true,
                "property": "KQvh"
              },
              {
                "width": 225,
                "visible": true,
                "property": "prop_2"
              },
              {
                "width": 131,
                "visible": true,
                "property": "prop_1"
              },
              {
                "width": 171,
                "visible": true,
                "property": "\"ybu"
              },
              {
                "width": 202,
                "visible": true,
                "property": "\"0Md"
              },
              {
                "width": 153,
                "visible": true,
                "property": "|n^C"
              },
              {
                "width": 200,
                "visible": true,
                "property": "Hhyo"
              }
            ]
          },
          "parent_id": "5b593126-d3eb-401d-b62c-83cbe362d2d5",
          "parent_table": "block",
          "alive": true,
          "page_sort": [
            "627a54a0-7fac-4a26-a27b-bd2a532da6bb",
            "ccce2098-44f0-40b1-ace8-74101510530d",
            "f8b076d9-6774-435a-8578-7a695f1320ff",
            "69a1896b-d583-4cf0-96c1-3c2bfd2cf02b",
            "6e461aa6-9cd2-4240-aefb-eeb3f1dc7ad2",
            "28a9bb99-411f-461d-860d-ed8c1ae083fc",
            "043205f8-ff26-4a76-921b-e430bc312595",
            "5f35355a-1258-4c3c-9ed8-ab8591a19e46",
            "99bc793c-cadc-4831-9569-cb570331d8cc",
            "1b0cfe54-d5b5-4760-a4dd-0e34c2ea50b9",
            "4ba2626a-6c1f-4d27-8580-da3f2c7717b8",
            "1d49d399-f78e-4972-99e7-83be52aaf0d5",
            "2abd0a3f-3afb-46c4-96d6-91d697078d8b",
            "2cdcc2bd-e924-49c9-9ab6-a312f487c447",
            "64096962-31e7-4faf-b336-9974a24b62db",
            "4e5cb27c-3b29-4a5d-ac0c-a2eb06106a5c",
            "e2e873e9-4876-4e80-aae7-372dfcccad2c",
            "0c757a81-a0b2-46cc-994a-eacf1e7244bd",
            "964be230-59a5-4271-a0f0-30cd9ad2a7a4",
            "0299b868-cd07-482f-a043-2861914d11e7"
          ]
        }
      },
      "7e0cc42c-817b-4868-9e7c-86d8df8e68ae": {
        "role": "reader",
        "value": {
          "id": "7e0cc42c-817b-4868-9e7c-86d8df8e68ae",
          "version": 31,
          "type": "table",
          "name": "Table - Important",
          "query": {
            "filter": [
              {
                "id": "9e8af612-b528-48a9-8db4-d73d2f69ea7d",
                "type": "multi_select",
                "value": "🔥  Important",
                "property": "\"0Md",
                "comparator": "enum_contains"
              }
            ],
            "aggregate": [
              {
                "id": "523d07c8-230d-4696-b36c-d67435c9a4be",
                "type": "title",
                "property": "title",
                "view_type": "table",
                "aggregation_type": "count"
              }
            ],
            "filter_operator": "and"
          },
          "format": {
            "table_properties": [
              {
                "width": 280,
                "visible": true,
                "property": "title"
              },
              {
                "width": 141,
                "visible": true,
                "property": "KQvh"
              },
              {
                "width": 225,
                "visible": true,
                "property": "prop_2"
              },
              {
                "width": 131,
                "visible": true,
                "property": "prop_1"
              },
              {
                "width": 171,
                "visible": true,
                "property": "\"ybu"
              },
              {
                "width": 192,
                "visible": true,
                "property": "\"0Md"
              },
              {
                "width": 153,
                "visible": true,
                "property": "|n^C"
              },
              {
                "width": 200,
                "visible": true,
                "property": "Hhyo"
              }
            ]
          },
          "parent_id": "5b593126-d3eb-401d-b62c-83cbe362d2d5",
          "parent_table": "block",
          "alive": true
        }
      }
    },
    "collection": {
      "0983b4a2-1683-42cd-ae71-71d405414204": {
        "role": "reader",
        "value": {
          "id": "0983b4a2-1683-42cd-ae71-71d405414204",
          "version": 31,
          "name": [
            [
              "Tasks & Issues"
            ]
          ],
          "description": [
            [
              "Click on a card to add more details.\nClick on 'Board by Status' to toggle between views."
            ]
          ],
          "schema": {
            "\"0Md": {
              "name": "Tags",
              "type": "multi_select",
              "options": [
                {
                  "id": "931319ed-1c4b-4b44-887b-9fff48534fc9",
                  "color": "purple",
                  "value": "Analytics"
                },
                {
                  "id": "6b180f94-ab62-4214-a4b2-f3c1bfe351e3",
                  "color": "default",
                  "value": "iOS"
                },
                {
                  "id": "302ed587-eaa2-4d99-b1ee-82d9af1cd489",
                  "value": "Android"
                },
                {
                  "id": "2f3924d3-efec-464e-9af6-0e972eb18059",
                  "color": "pink",
                  "value": "Bug"
                },
                {
                  "id": "4be7ba41-7d8a-43e9-9781-7b036dd3c98d",
                  "color": "red",
                  "value": "🔥  Important"
                },
                {
                  "id": "0e64f3b1-c83c-46db-9556-dc114593a530",
                  "color": "blue",
                  "value": "Polish"
                },
                {
                  "id": "3440418c-9e22-46e3-8cdb-2a7b1b920757",
                  "color": "green",
                  "value": "QA"
                }
              ]
            },
            "\"ybu": {
              "name": "Optional Due Date",
              "type": "date"
            },
            "Hhyo": {
              "name": "Created By",
              "type": "created_by"
            },
            "KQvh": {
              "name": "Team",
              "type": "select",
              "options": [
                {
                  "id": "50736fe4-2da1-42b1-971d-b998b58544bf",
                  "color": "orange",
                  "value": "Design"
                },
                {
                  "id": "db604432-aa09-4c42-b6a8-382005790d20",
                  "color": "green",
                  "value": "Engineering"
                },
                {
                  "id": "e5408485-6351-48a3-aacb-46c94eacf98d",
                  "color": "blue",
                  "value": "Marketing"
                }
              ]
            },
            "|n^C": {
              "name": "Created Date",
              "type": "created_time"
            },
            "title": {
              "name": "Name",
              "type": "title"
            },
            "prop_1": {
              "name": "Status",
              "type": "select",
              "options": [
                {
                  "id": "040a0f93-6194-4d2d-9fe8-5d1984d9314e",
                  "color": "gray",
                  "value": "Next Up"
                },
                {
                  "id": "0dd6bafa-654b-41b0-a334-f2c351ea50b4",
                  "color": "purple",
                  "value": "In Progress"
                },
                {
                  "id": "73d8c836-d46f-46e0-96e8-3783f0a6840e",
                  "color": "pink",
                  "value": "Completed"
                }
              ]
            },
            "prop_2": {
              "name": "Assignee",
              "type": "person"
            }
          },
          "icon": "📮",
          "format": {
            "collection_page_properties": [
              {
                "visible": true,
                "property": "prop_2"
              },
              {
                "visible": true,
                "property": "Hhyo"
              },
              {
                "visible": true,
                "property": "|n^C"
              },
              {
                "visible": true,
                "property": "\"ybu"
              },
              {
                "visible": true,
                "property": "prop_1"
              },
              {
                "visible": true,
                "property": "\"0Md"
              }
            ]
          },
          "parent_id": "5b593126-d3eb-401d-b62c-83cbe362d2d5",
          "parent_table": "block",
          "alive": true
        }
      }
    },
    "space": {}
  }
}